{
	"addr": {
		"GR": {
			"identity": {
				"version": {
					"_number": "13705 $",
					"_cldrVersion": "32.0.1"
				},
				"country": "GR"
			},
			"inputs": {
				"row1": [
					{
						"field": "country",
						"required": true
					}
				],
				"row2": [
					{
						"field": "street1",
						"required": true
					},
					{
						"field": "street2",
						"required": false
					}
				],
				"row3": [
					{
						"field": "zip",
						"required": true
					}
				],
				"row4": [
					{
						"field": "city",
						"required": true
					},
					{
						"field": "state",
						"required": true
					}
				]
			}
		}
	}
}