{
	"main": {
		"el": {
			"identity": {
				"version": {
					"_number": "13705 $",
					"_cldrVersion": "32.0.1"
				},
				"locale": "el"
			},
			"placeholders": {
				"street1": {
					"displayName": "Συμπλρώστες οδό και αριθμό"
				},
				"street2": {
					"displayName": "Όροφος/Θυροτηλέφωνο"
				},
				"city": {
					"displayName": "Συμπληρώστε πόλη"
				},
				"state": {
					"displayName": "Περιφεριακή Ενότητα"
				},
				"zip": {
					"displayName": "000 00"
				},
				"country": {
					"displayName": "Επιλογή ενότητας"
				}
			}
		}
	}
}