{
    "addr": {
        "JP": {
            "identity": {
                "version": {
                    "_number": "13705 $",
                    "_cldrVersion": "32.0.1"
                },
                "country": "JP"
            },
            "addr": {
                "lfmt": "%N%n%O%n%A%n%C, %S%n%Z",
                "fmt": "〒%Z%n%S%C%n%A%n%O%n%N",
                "zip": "\\d{3}-?\\d{4}",
                "zipex": "154-0023,350-1106,951-8073,112-0001,208-0032,231-0012",
                "require": "ACSZ",
                "upper": "S",
                "state_name_type": "prefecture",
                "posturl": "http:\/\/search.post.japanpost.jp\/zipcode\/",
                "languages": [
                    {
                        "key": "ja",
                        "iso": "ja"
                    }
                ]
            }
        }
    }
}