{
    "addr": {
        "CY": {
            "identity": {
                "version": {
                    "_number": "13705 $",
                    "_cldrVersion": "32.0.1"
                },
                "country": "CY"
            },
            "validations": {
                "default": {
                    "regex_zips": [],
                    "regex_requires": [],
                    "zip_examples": []
                }
            }
        }
    }
}